\relax 
\providecommand\hyper@newdestlabel[2]{}
\providecommand\BKM@entry[2]{}
\providecommand*{\memsetcounter}[2]{}
\providecommand\HyperFirstAtBeginDocument{\AtBeginDocument}
\HyperFirstAtBeginDocument{\ifx\hyper@anchor\@undefined
\global\let\oldcontentsline\contentsline
\gdef\contentsline#1#2#3#4{\oldcontentsline{#1}{#2}{#3}}
\global\let\oldnewlabel\newlabel
\gdef\newlabel#1#2{\newlabelxx{#1}#2}
\gdef\newlabelxx#1#2#3#4#5#6{\oldnewlabel{#1}{{#2}{#3}}}
\AtEndDocument{\ifx\hyper@anchor\@undefined
\let\contentsline\oldcontentsline
\let\newlabel\oldnewlabel
\fi}
\fi}
\global\let\hyper@last\relax 
\gdef\HyperFirstAtBeginDocument#1{#1}
\providecommand\HyField@AuxAddToFields[1]{}
\providecommand\HyField@AuxAddToCoFields[2]{}
\@nameuse{bbl@beforestart}
\catcode `"\active 
\citation{abnt-url-package=url}
\@writefile{toc}{\changetocdepth  {4}}
\babel@aux{brazil}{}
\BKM@entry{id=1,dest={6368617074657262312E30},srcline={67}}{466F6C686120646520726F73746F}
\BKM@entry{id=2,dest={6368617074657262322E30},srcline={74}}{446564696361745C333633726961}
\BKM@entry{id=3,dest={6368617074657262342E30},srcline={80}}{41677261646563696D656E746F73}
\@writefile{toc}{\setlength  {\cftchapterindent }{\cftlastnumwidth } \setlength  {\cftchapternumwidth }{2em}}
\BKM@entry{id=4,dest={6368617074657262352E30},srcline={91}}{45705C3335356772616665}
\BKM@entry{id=5,dest={6368617074657262362E30},srcline={101}}{526573756D6F}
\BKM@entry{id=6,dest={6368617074657262372E30},srcline={109}}{4162737472616374}
\BKM@entry{id=7,dest={6368617074657262392E30},srcline={117}}{4C69737461206465206162726576696174757261732065207369676C6173}
\@writefile{toc}{\setlength  {\cftchapterindent }{\cftlastnumwidth } \setlength  {\cftchapternumwidth }{2em}}
\BKM@entry{id=8,dest={73656374696F6E2A2E3130},srcline={126}}{4C6973746120646520696C75737472615C3334375C3336356573}
\@writefile{toc}{\contentsline {chapter}{Lista de ilustra\c {c}\~{o}es}{10}{section*.10}\protected@file@percent }
\@writefile{toc}{\setlength  {\cftchapterindent }{\cftlastnumwidth } \setlength  {\cftchapternumwidth }{2em}}
\BKM@entry{id=9,dest={746F632E30},srcline={129}}{53756D5C33343172696F}
\@writefile{toc}{\setlength  {\cftchapterindent }{\cftlastnumwidth } \setlength  {\cftchapternumwidth }{2em}}
\BKM@entry{id=10,dest={636861707465722E31},srcline={3}}{4469636173}
\BKM@entry{id=11,dest={73656374696F6E2E312E31},srcline={8}}{4578656D706C6F7320646520636974615C3334375C3336356573}
\citation{SILVA2005}
\citation{CRUZ2000}
\citation{CRUZ2000}
\citation{GRAMSCI2004}
\citation{CALDART2004}
\citation{NOSELLA2004}
\@writefile{toc}{\setlength  {\cftchapterindent }{0em} \setlength  {\cftchapternumwidth }{\cftlastnumwidth }}
\@writefile{toc}{\contentsline {chapter}{\chapternumberline {1}\MakeTextUppercase  {Dicas}}{12}{chapter.1}\protected@file@percent }
\newlabel{chap:dicas}{{\M@TitleReference {1}{\MakeTextUppercase  {Dicas}}}{12}{Dicas}{chapter.1}{}}
\@writefile{toc}{\contentsline {section}{\numberline {1.1}Exemplos de cita\c c\~oes}{12}{section.1.1}\protected@file@percent }
\@writefile{lof}{\contentsline {figure}{\numberline {1}{\ignorespaces Logotipo da UFOP.}}{12}{figure.1.1}\protected@file@percent }
\newlabel{fig:logotipo}{{\M@TitleReference {1}{Fonte: site da UFOP.}}{12}{Logotipo da UFOP}{figure.1.1}{}}
\citation{SLACK2002}
\citation{SLACK2002}
\citation{FERNANDES1998}
\citation{FERNANDES1998}
\citation{MORISSAWA2001}
\citation{MORISSAWA2001}
\citation{FERNANDES1998}
\citation{FERNANDES1998}
\citation{MORISSAWA2001}
\citation{MORISSAWA2001}
\citation{SEBRAE}
\bibdata{abntex2-options,abntex2}
\BKM@entry{id=12,dest={73656374696F6E2A2E3133},srcline={3}}{52656665725C3335326E63696173}
\bibcite{CALDART2004}{Caldart 2004}
\bibciteEXPL{CALDART2004}{Caldart}
\bibciteIMPL{CALDART2004}{CALDART}
\bibciteYEAR{CALDART2004}{2004}
\bibcite{CRUZ2000}{Cruz 2000}
\bibciteEXPL{CRUZ2000}{Cruz}
\bibciteIMPL{CRUZ2000}{CRUZ}
\bibciteYEAR{CRUZ2000}{2000}
\bibcite{FERNANDES1998}{Fernandes 1998}
\bibciteEXPL{FERNANDES1998}{Fernandes}
\bibciteIMPL{FERNANDES1998}{FERNANDES}
\bibciteYEAR{FERNANDES1998}{1998}
\bibcite{GRAMSCI2004}{Gramsci 2004}
\bibciteEXPL{GRAMSCI2004}{Gramsci}
\bibciteIMPL{GRAMSCI2004}{GRAMSCI}
\bibciteYEAR{GRAMSCI2004}{2004}
\bibcite{MORISSAWA2001}{Morissawa 2001}
\bibciteEXPL{MORISSAWA2001}{Morissawa}
\bibciteIMPL{MORISSAWA2001}{MORISSAWA}
\bibciteYEAR{MORISSAWA2001}{2001}
\bibcite{NOSELLA2004}{Nosella 2004}
\bibciteEXPL{NOSELLA2004}{Nosella}
\bibciteIMPL{NOSELLA2004}{NOSELLA}
\bibciteYEAR{NOSELLA2004}{2004}
\bibcite{SEBRAE}{SEBRAE 2009}
\bibciteEXPL{SEBRAE}{SEBRAE}
\bibciteIMPL{SEBRAE}{SEBRAE}
\bibciteYEAR{SEBRAE}{2009}
\bibcite{SILVA2005}{Silva 2005}
\bibciteEXPL{SILVA2005}{Silva}
\bibciteIMPL{SILVA2005}{SILVA}
\bibciteYEAR{SILVA2005}{2005}
\bibcite{SLACK2002}{Slack, Chambers e Johnston 2002}
\bibciteEXPL{SLACK2002}{Slack, Chambers e Johnston}
\bibciteIMPL{SLACK2002}{SLACK; CHAMBERS; JOHNSTON}
\bibciteYEAR{SLACK2002}{2002}
\bibstyle{abntex2-alf}
\@writefile{toc}{\setlength  {\cftchapterindent }{\cftlastnumwidth } \setlength  {\cftchapternumwidth }{2em}}
\@writefile{toc}{\contentsline {chapter}{\uppercase {Refer\^encias}}{14}{section*.13}\protected@file@percent }
\newlabel{LastPage}{{}{14}{}{page.14}{}}
\xdef\lastpage@lastpage{14}
\xdef\lastpage@lastpageHy{14}
\memsetcounter{lastsheet}{15}
\memsetcounter{lastpage}{14}
