\changetocdepth {4}
\babel@toc {brazil}{}
\setlength {\cftchapterindent }{\cftlastnumwidth } \setlength {\cftchapternumwidth }{2em}
\setlength {\cftchapterindent }{\cftlastnumwidth } \setlength {\cftchapternumwidth }{2em}
\contentsline {chapter}{Lista de ilustra\c {c}\~{o}es}{10}{section*.10}%
\setlength {\cftchapterindent }{\cftlastnumwidth } \setlength {\cftchapternumwidth }{2em}
\setlength {\cftchapterindent }{\cftlastnumwidth } \setlength {\cftchapternumwidth }{2em}
\setlength {\cftchapterindent }{0em} \setlength {\cftchapternumwidth }{\cftlastnumwidth }
\contentsline {chapter}{\chapternumberline {1}\MakeTextUppercase {Dicas}}{12}{chapter.1}%
\contentsline {section}{\numberline {1.1}Exemplos de cita\c c\~oes}{12}{section.1.1}%
\setlength {\cftchapterindent }{\cftlastnumwidth } \setlength {\cftchapternumwidth }{2em}
\contentsline {chapter}{\uppercase {Refer\^encias}}{14}{section*.13}%
